<?xml version="1.0" encoding="utf-8"?>
<!-- Generator: Adobe Illustrator 20.1.0, SVG Export Plug-In . SVG Version: 6.00 Build 0)  -->
<svg version="1.1" id="Capa_1" xmlns="http://www.w3.org/2000/svg" xmlns:xlink="http://www.w3.org/1999/xlink" x="0px" y="0px"
	 viewBox="0 0 9 18" style="enable-background:new 0 0 9 18;" xml:space="preserve">
<style type="text/css">
	.st0{fill:#FFFFFF;}
</style>
<g>
	<path id="Facebook" class="st0" d="M1.9,3.5c0,0.5,0,2.5,0,2.5H0v3h1.9v9h4V9h2.7c0,0,0.3-1.5,0.4-3C8.6,6,6,6,6,6s0-1.8,0-2.1
		c0-0.3,0.4-0.7,0.9-0.7c0.4,0,1.3,0,2.2,0C9,2.7,9,1.3,9,0C7.9,0,6.6,0,6,0C1.8,0,1.9,3,1.9,3.5z"/>
</g>
</svg>
