<?xml version="1.0" encoding="utf-8"?>
<!-- Generator: Adobe Illustrator 20.1.0, SVG Export Plug-In . SVG Version: 6.00 Build 0)  -->
<svg version="1.1" id="Layer_1" xmlns="http://www.w3.org/2000/svg" xmlns:xlink="http://www.w3.org/1999/xlink" x="0px" y="0px"
	 viewBox="0 0 20 13" style="enable-background:new 0 0 20 13;" xml:space="preserve">
<style type="text/css">
	.st0{fill:#FFFFFF;}
</style>
<g>
	<g>
		<polygon class="st0" points="18.2,3.7 18.2,5.5 20,5.5 20,7.4 18.2,7.4 18.2,9.3 16.4,9.3 16.4,7.4 14.5,7.4 14.5,5.5 16.4,5.5 
			16.4,3.7 		"/>
		<path class="st0" d="M1.8,11.1c-2.4-2.5-2.4-6.8,0.1-9.3C3.7,0,6.4-0.5,8.7,0.5L9.6,1l1,0.7L9,3.4L8.4,3C7,2,4.9,2.2,3.6,3.6
			c-1.5,1.6-1.6,4.3,0,6c1.5,1.7,4.2,1.7,5.7,0c0.4-0.4,0.8-1,0.9-1.7V7.7H6.6V5.6h5.8l0.1,0.5v1.4c-0.1,1.3-0.6,2.7-1.5,3.6
			C8.5,13.6,4.2,13.6,1.8,11.1z"/>
	</g>
</g>
</svg>
