<?xml version="1.0" encoding="utf-8"?>
<!-- Generator: Adobe Illustrator 20.1.0, SVG Export Plug-In . SVG Version: 6.00 Build 0)  -->
<svg version="1.1" id="Capa_1" xmlns="http://www.w3.org/2000/svg" xmlns:xlink="http://www.w3.org/1999/xlink" x="0px" y="0px"
	 viewBox="0 0 18 16.1" style="enable-background:new 0 0 18 16.1;" xml:space="preserve">
<style type="text/css">
	.st0{fill:#FFFFFF;}
</style>
<g>
	<path class="st0" d="M14.5,16.1c-0.1,0-0.3,0-0.4-0.1l-4.5-3.1l-2.4,1.7c-0.2,0.1-0.4,0.2-0.7,0.1c-0.2-0.1-0.4-0.3-0.4-0.5
		L4.8,9.6L0.5,8C0.2,7.9,0,7.6,0,7.3C0,7,0.2,6.8,0.4,6.6L17,0.1C17.1,0,17.2,0,17.2,0c0,0,0.1,0,0.1,0c0.2,0,0.3,0.1,0.5,0.2
		c0,0,0,0,0,0C17.9,0.4,18,0.5,18,0.7c0,0,0,0.1,0,0.1c0,0,0,0.1,0,0.1l-2.8,14.7c0,0.2-0.2,0.4-0.4,0.5
		C14.7,16.1,14.6,16.1,14.5,16.1z M10,11.5l4,2.7l2.2-11.4l-7.9,7.6L10,11.5C9.9,11.4,10,11.5,10,11.5z M6.6,10.8l0.5,2l1.2-0.8
		l-1.5-1C6.7,11,6.7,10.9,6.6,10.8z M2.7,7.3l3,1.1C5.9,8.5,6,8.7,6.1,8.9l0.4,1.4c0-0.2,0.1-0.3,0.2-0.4l7.5-7.2L2.7,7.3z"/>
</g>
</svg>
