<?xml version="1.0" encoding="utf-8"?>
<!-- Generator: Adobe Illustrator 21.1.0, SVG Export Plug-In . SVG Version: 6.00 Build 0)  -->
<svg version="1.1" id="Capa_1" xmlns="http://www.w3.org/2000/svg" xmlns:xlink="http://www.w3.org/1999/xlink" x="0px" y="0px"
	 viewBox="0 0 50 50" style="enable-background:new 0 0 50 50;" xml:space="preserve">
<g>
	<path d="M28.9,28.3c0.2,0.5,0.3,1.1,0.1,1.7c-0.1,0.8-0.5,1.3-1,1.8c-0.5,0.5-1.1,0.7-1.7,0.8s-1.4,0-2.3-0.2l-1.6-0.3
		c-0.5-0.1-0.8-0.2-1-0.3c-0.1-0.1-0.2-0.2-0.2-0.3c0-0.1,0-0.5,0.1-1.2l0.9-4.7l2.8,0.5c1.2,0.2,2.1,0.5,2.7,0.8
		C28.3,27.4,28.7,27.8,28.9,28.3z M29,18.4c-0.5-0.3-1.4-0.5-2.8-0.8l-2.4-0.4l-1,5.3l2.4,0.4c1.2,0.2,2.2,0.3,2.8,0.2
		c0.6-0.1,1.1-0.3,1.5-0.7c0.4-0.4,0.6-0.8,0.7-1.4s0.1-1.1-0.2-1.5C29.9,19.1,29.5,18.7,29,18.4z M50,25c0,13.8-11.2,25-25,25
		S0,38.8,0,25S11.2,0,25,0S50,11.2,50,25z M35.3,18.4c-0.4-0.9-1.1-1.7-2.1-2.4c-0.4-0.3-0.9-0.5-1.4-0.7l0.7-3.8l-3.6-0.7l-0.7,3.5
		L25.8,14l0.7-3.5l-3.7-0.7l-0.7,3.6l-5.6-1.1l-0.6,3l0.9,0.2c0.6,0.1,0.9,0.2,1.1,0.4c0.2,0.1,0.3,0.3,0.3,0.5
		c0.1,0.2,0,0.6-0.1,1.2l-2.2,12c-0.1,0.6-0.2,1-0.3,1.2s-0.3,0.3-0.5,0.3c-0.2,0.1-0.6,0.1-1.2-0.1L13,30.8l-0.6,3l5.6,1l-0.7,3.6
		l3.7,0.7l0.7-3.5l2.1,0.4c0.1,0,0.2,0,0.3,0.1l-0.7,3.6l3.6,0.7l0.7-3.8c0.6,0,1.2-0.1,1.7-0.2c1.4-0.3,2.5-0.8,3.3-1.7
		c0.9-0.8,1.4-1.8,1.6-3c0.2-1,0.1-1.9-0.2-2.7c-0.3-0.9-0.8-1.6-1.5-2.2c-0.5-0.4-1.2-0.8-2.2-1.3c1-0.1,1.8-0.4,2.5-0.8
		s1.2-0.9,1.6-1.4c0.4-0.6,0.7-1.2,0.8-1.9C35.8,20.3,35.7,19.3,35.3,18.4z"/>
</g>
</svg>
