<?xml version="1.0" encoding="utf-8"?>
<!-- Generator: Adobe Illustrator 21.1.0, SVG Export Plug-In . SVG Version: 6.00 Build 0)  -->
<svg version="1.1" id="Layer_1" xmlns="http://www.w3.org/2000/svg" xmlns:xlink="http://www.w3.org/1999/xlink" x="0px" y="0px"
	 viewBox="0 0 16 12" style="enable-background:new 0 0 16 12;" xml:space="preserve">
<style type="text/css">
	.st0{fill:#464655;}
	.st1{fill:#FFE15A;}
	.st2{fill:#FF4B55;}
</style>
<path class="st0" d="M16,4H0V0.3C0,0.1,0.1,0,0.3,0h15.4C15.9,0,16,0.1,16,0.3V4L16,4z"/>
<path class="st1" d="M15.7,12H0.3C0.1,12,0,11.9,0,11.7V8h16v3.7C16,11.9,15.9,12,15.7,12z"/>
<rect y="4" class="st2" width="16" height="4"/>
<rect y="0" class="st0" width="16" height="4"/>
<rect y="8" class="st1" width="16" height="4"/>
</svg>
