<?xml version="1.0" encoding="utf-8"?>
<!-- Generator: Adobe Illustrator 20.1.0, SVG Export Plug-In . SVG Version: 6.00 Build 0)  -->
<svg version="1.1" id="Layer_1" xmlns="http://www.w3.org/2000/svg" xmlns:xlink="http://www.w3.org/1999/xlink" x="0px" y="0px"
	 viewBox="0 0 16 12" style="enable-background:new 0 0 16 12;" xml:space="preserve">
<style type="text/css">
	.st0{fill:#C8414B;}
	.st1{fill:#FFD250;}
	.st2{fill:#F5F5F5;}
	.st3{fill:#FAB446;}
	.st4{fill:#FFB441;}
	.st5{fill:#5064AA;}
	.st6{fill:#FFA0D2;}
</style>
<path class="st0" d="M0.3,12h15.4c0.2,0,0.3-0.1,0.3-0.3V0.3C16,0.1,15.9,0,15.7,0H0.3C0.1,0,0,0.1,0,0.3v11.4C0,11.9,0.1,12,0.3,12
	z"/>
<rect y="2.5" class="st1" width="16" height="6.9"/>
<path class="st0" d="M6.8,6L7,4.8c0-0.1-0.1-0.2-0.2-0.2H6.7c-0.1,0-0.2,0.1-0.2,0.2L6.8,6z"/>
<rect x="6.5" y="5.4" class="st2" width="0.6" height="2.7"/>
<rect x="6.3" y="5.1" class="st3" width="0.8" height="0.3"/>
<g>
	<rect x="5.8" y="6" class="st0" width="1.4" height="0.3"/>
	<polygon class="st0" points="7.2,7.3 6.3,6.9 6.3,6.6 7.2,6.9 	"/>
	<path class="st0" d="M2.6,6l0.2-1.2c0-0.1-0.1-0.2-0.2-0.2H2.5c-0.1,0-0.2,0.1-0.2,0.2L2.6,6z"/>
</g>
<path class="st2" d="M3.6,5.1c-0.2,0-0.3,0.1-0.3,0.3v2.1c0,0.4,0.3,1.1,1.4,1.1s1.4-0.7,1.4-1.1V5.4c0-0.2-0.1-0.3-0.3-0.3H3.6z"/>
<g>
	<path class="st0" d="M4.7,6.6H3.3V5.4c0-0.2,0.1-0.3,0.3-0.3h1.1V6.6z"/>
	<path class="st0" d="M4.7,6.6h1.4v0.8c0,0.4-0.3,0.8-0.7,0.8l0,0C5,8.2,4.7,7.9,4.7,7.4V6.6z"/>
</g>
<path class="st3" d="M3.3,6.6h1.4v0.8c0,0.4-0.3,0.8-0.7,0.8l0,0c-0.4,0-0.7-0.4-0.7-0.8V6.6z"/>
<g>
	<path class="st0" d="M4.4,8V6.6H4.1v1.6C4.2,8.2,4.3,8.1,4.4,8z"/>
	<path class="st0" d="M3.9,8.2V6.6H3.6V8C3.7,8.1,3.8,8.2,3.9,8.2z"/>
</g>
<rect x="3.6" y="6" class="st4" width="0.8" height="0.3"/>
<g>
	<rect x="3.6" y="5.4" class="st3" width="0.8" height="0.3"/>
	<rect x="3.7" y="5.6" class="st3" width="0.6" height="0.6"/>
</g>
<rect x="2.3" y="5.4" class="st2" width="0.6" height="2.7"/>
<g>
	<rect x="2.2" y="7.9" class="st3" width="0.8" height="0.3"/>
	<rect x="2.2" y="5.1" class="st3" width="0.8" height="0.3"/>
</g>
<rect x="2.1" y="8.2" class="st5" width="1.1" height="0.3"/>
<rect x="6.5" y="7.9" class="st3" width="0.8" height="0.3"/>
<rect x="6.2" y="8.2" class="st5" width="1.1" height="0.3"/>
<rect x="3.9" y="4.7" class="st3" width="1.7" height="0.3"/>
<rect x="4.6" y="3.8" class="st4" width="0.3" height="0.9"/>
<g>
	<path class="st2" d="M4.4,4.3C4.2,4.3,4,4.1,4,3.8c0-0.3,0.2-0.5,0.4-0.5c0.2,0,0.4,0.2,0.4,0.5C4.8,4.1,4.6,4.3,4.4,4.3z M4.4,3.6
		c-0.1,0-0.1,0.1-0.1,0.2c0,0.1,0.1,0.2,0.1,0.2c0.1,0,0.1-0.1,0.1-0.2C4.6,3.7,4.5,3.6,4.4,3.6z"/>
	<path class="st2" d="M5,4.3c-0.2,0-0.4-0.2-0.4-0.5c0-0.3,0.2-0.5,0.4-0.5c0.2,0,0.4,0.2,0.4,0.5S5.2,4.3,5,4.3z M5,3.6
		c-0.1,0-0.1,0.1-0.1,0.2c0,0.1,0.1,0.2,0.1,0.2c0.1,0,0.1-0.1,0.1-0.2C5.1,3.7,5,3.6,5,3.6z"/>
	<path class="st2" d="M5.5,4.6c-0.2,0-0.4-0.2-0.4-0.5c0-0.3,0.2-0.5,0.4-0.5c0.2,0,0.4,0.2,0.4,0.5C5.9,4.4,5.7,4.6,5.5,4.6z
		 M5.5,3.9C5.4,3.9,5.4,4,5.4,4.1c0,0.1,0.1,0.2,0.1,0.2c0.1,0,0.1-0.1,0.1-0.2C5.7,4,5.6,3.9,5.5,3.9z"/>
	<path class="st2" d="M3.9,4.6c-0.2,0-0.4-0.2-0.4-0.5c0-0.3,0.2-0.5,0.4-0.5c0.2,0,0.4,0.2,0.4,0.5C4.3,4.4,4.1,4.6,3.9,4.6z
		 M3.9,3.9C3.8,3.9,3.7,4,3.7,4.1c0,0.1,0.1,0.2,0.1,0.2S4,4.2,4,4.1C4,4,3.9,3.9,3.9,3.9z"/>
</g>
<path class="st3" d="M5.5,7.3v0.2c0,0.1-0.1,0.2-0.1,0.2c-0.1,0-0.1-0.1-0.1-0.2V7.3H5.5 M5.8,6.9H5v0.5c0,0.3,0.2,0.5,0.4,0.5
	c0.2,0,0.4-0.2,0.4-0.5L5.8,6.9L5.8,6.9z"/>
<path class="st6" d="M5.4,6.3L5.4,6.3C5.2,6.3,5.1,6.2,5.1,6V5.7c0-0.2,0.1-0.3,0.3-0.3l0,0c0.2,0,0.3,0.1,0.3,0.3V6
	C5.7,6.2,5.5,6.3,5.4,6.3z"/>
<ellipse class="st5" cx="4.7" cy="6.6" rx="0.4" ry="0.5"/>
<rect x="4.6" y="3.2" class="st3" width="0.3" height="0.9"/>
<path class="st0" d="M3.9,4.7L3.6,4.4l0.2-0.2C4,4,4.3,3.8,4.7,3.8l0,0C5,3.8,5.4,4,5.6,4.2l0.2,0.2L5.5,4.7H3.9z"/>
<g>
	<ellipse class="st1" cx="4.7" cy="4.4" rx="0.1" ry="0.2"/>
	<ellipse class="st1" cx="4.1" cy="4.4" rx="0.1" ry="0.2"/>
	<ellipse class="st1" cx="5.2" cy="4.4" rx="0.1" ry="0.2"/>
</g>
<g>
	<rect x="2.2" y="6" class="st0" width="1.4" height="0.3"/>
	<polygon class="st0" points="2.2,7.3 3,6.9 3,6.6 2.2,6.9 	"/>
</g>
<rect class="st0" width="16" height="2.5"/>
<rect y="9.5" class="st0" width="16" height="2.5"/>
</svg>
