<?xml version="1.0" encoding="utf-8"?>
<!-- Generator: Adobe Illustrator 21.1.0, SVG Export Plug-In . SVG Version: 6.00 Build 0)  -->
<svg version="1.1" id="Layer_1" xmlns="http://www.w3.org/2000/svg" xmlns:xlink="http://www.w3.org/1999/xlink" x="0px" y="0px"
	 viewBox="0 0 72 60" style="enable-background:new 0 0 72 60;" xml:space="preserve">
<style type="text/css">
	.st0{fill:#F6B559;}
</style>
<g>
	<g>
		<path class="st0" d="M63.9,49.6c4.8-4.7,7.6-11,8-17.7c0.5-7.8-2.4-15.5-8-21c-0.5-0.5-1.3-0.5-1.8,0L43.6,29.4
			c-0.5,0.5-0.5,1.3,0,1.8l18.6,18.5C62.7,50.1,63.5,50.1,63.9,49.6z M46.2,30.3L63,13.6c4.5,4.9,6.8,11.5,6.4,18.2
			c-0.4,5.6-2.6,11-6.4,15.1L46.2,30.3z"/>
		<path class="st0" d="M51.6,51.2c0.5-0.5,0.5-1.3,0-1.8s-1.3-0.5-1.8,0c-10.8,10.7-28.4,10.7-39.2,0s-10.8-28.2,0-38.9
			s28.4-10.7,39.2,0c0.5,0.5,1.3,0.5,1.8,0s0.5-1.3,0-1.8C39.8-2.9,20.6-2.9,8.8,8.8S-3,39.5,8.8,51.3S39.8,62.9,51.6,51.2z"/>
		<path class="st0" d="M42.8,17.5c-0.5-0.5-1.3-0.5-1.8,0s-0.5,1.3,0,1.8s1.3,0.5,1.8,0S43.3,18,42.8,17.5z"/>
		<path class="st0" d="M48.6,11.7c-0.5-0.5-1.3-0.5-1.8,0s-0.5,1.3,0,1.8s1.3,0.5,1.8,0S49.1,12.2,48.6,11.7z"/>
		<path class="st0" d="M39.8,20.4c-0.5-0.5-1.3-0.5-1.8,0s-0.5,1.3,0,1.8s1.3,0.5,1.8,0C40.3,21.7,40.3,20.9,39.8,20.4z"/>
		<path class="st0" d="M45.7,14.6c-0.5-0.5-1.3-0.5-1.8,0s-0.5,1.3,0,1.8s1.3,0.5,1.8,0C46.2,15.9,46.2,15.1,45.7,14.6z"/>
		<path class="st0" d="M34,26.2c-0.5-0.5-1.3-0.5-1.8,0s-0.5,1.3,0,1.8s1.3,0.5,1.8,0S34.5,26.7,34,26.2z"/>
		<path class="st0" d="M36.9,23.3c-0.5-0.5-1.3-0.5-1.8,0s-0.5,1.3,0,1.8s1.3,0.5,1.8,0C37.4,24.6,37.4,23.8,36.9,23.3z"/>
		<path class="st0" d="M31.1,29.1c-0.2-0.2-0.6-0.4-0.9-0.4s-0.7,0.1-0.9,0.4c-0.2,0.2-0.4,0.6-0.4,0.9s0.1,0.6,0.4,0.9
			c0.2,0.2,0.6,0.4,0.9,0.4s0.7-0.1,0.9-0.4c0.2-0.2,0.4-0.6,0.4-0.9C31.4,29.7,31.3,29.3,31.1,29.1z"/>
		<path class="st0" d="M48.6,48.3c0.5-0.5,0.5-1.3,0-1.8s-1.3-0.5-1.8,0s-0.5,1.3,0,1.8S48.1,48.8,48.6,48.3z"/>
		<path class="st0" d="M36.9,36.7c0.5-0.5,0.5-1.3,0-1.8s-1.3-0.5-1.8,0s-0.5,1.3,0,1.8C35.6,37.2,36.4,37.2,36.9,36.7z"/>
		<path class="st0" d="M39.9,39.6c0.5-0.5,0.5-1.3,0-1.8s-1.3-0.5-1.8,0s-0.5,1.3,0,1.8C38.6,40.1,39.4,40.1,39.9,39.6z"/>
		<path class="st0" d="M42.8,42.5c0.5-0.5,0.5-1.3,0-1.8s-1.3-0.5-1.8,0s-0.5,1.3,0,1.8S42.3,43,42.8,42.5z"/>
		<path class="st0" d="M43.9,45.4c0.5,0.5,1.3,0.5,1.8,0s0.5-1.3,0-1.8s-1.3-0.5-1.8,0C43.4,44.1,43.4,44.9,43.9,45.4z"/>
		<path class="st0" d="M34,33.8c0.5-0.5,0.5-1.3,0-1.8c-0.5-0.5-1.3-0.5-1.8,0c-0.5,0.5-0.5,1.3,0,1.8S33.5,34.3,34,33.8z"/>
	</g>
</g>
<polygon class="st0" points="62.8,18.3 50.8,30.2 52.7,32 64.1,20.7 "/>
<polygon class="st0" points="65.1,23.3 54.6,33.7 56.4,35.5 65.4,26.6 "/>
<polygon class="st0" points="65.4,30.4 58.7,37.1 60.6,39 65.7,33.8 "/>
</svg>
