<?xml version="1.0" encoding="utf-8"?>
<!-- Generator: Adobe Illustrator 21.1.0, SVG Export Plug-In . SVG Version: 6.00 Build 0)  -->
<svg version="1.1" id="Layer_1" xmlns="http://www.w3.org/2000/svg" xmlns:xlink="http://www.w3.org/1999/xlink" x="0px" y="0px"
	 viewBox="0 0 18.3 18.4" style="enable-background:new 0 0 18.3 18.4;" xml:space="preserve">
<style type="text/css">
	.st0{fill:none;stroke:#FFFFFF;stroke-width:1.5;}
	.st1{fill:#FFFFFF;}
</style>
<path class="st0" d="M15.2,10.1l2-2l-2-2"/>
<rect x="9.4" y="7.4" class="st1" width="8" height="1.5"/>
<path id="Rectangle_658_copy_2" class="st1" d="M2.9,0.5l3.8,1.7C7.8,3,8.4,4.4,8.4,5.8v10.7c0,1.5-0.8,2.2-1.7,1.7l-4.6-2.6
	c-0.9-0.5-1.7-3.1-1.7-4.5v-8C0.4,1.6,2-0.1,2.9,0.5z"/>
<path class="st1" d="M11.3,11.4v1.3c0,1.5-1.1,2.7-2.5,2.7h-5c-1.4,0-2.5-1.2-2.5-2.7V3.7c0-1.5,1.1-2.7,2.5-2.7h5
	c1.4,0,2.5,1.2,2.5,2.7v1.6h1.1V3.1C12.4,1.4,11,0,9.3,0H3.1C1.4,0,0,1.4,0,3.1v10.3c0,1.7,1.4,3.1,3.1,3.1h6.2
	c1.7,0,3.1-1.4,3.1-3.1v-2H11.3z"/>
</svg>
