<?xml version="1.0" encoding="utf-8"?>
<!-- Generator: Adobe Illustrator 21.1.0, SVG Export Plug-In . SVG Version: 6.00 Build 0)  -->
<svg version="1.1" id="Layer_1" xmlns="http://www.w3.org/2000/svg" xmlns:xlink="http://www.w3.org/1999/xlink" x="0px" y="0px"
	 viewBox="0 0 50 55" style="enable-background:new 0 0 50 55;" xml:space="preserve">
<style type="text/css">
	.st0{fill:none;stroke:#332F47;stroke-width:2;}
	.st1{fill:#F6B559;stroke:#332F47;stroke-width:2;}
	.st2{fill:#332F47;}
	.st3{enable-background:new    ;}
</style>
<path class="st0" d="M11,1h26v4c0,2.7,2.3,5,5,5h4v36c0,2.8-2.2,5-5,5H11c-2.8,0-5-2.2-5-5V6C6,3.2,8.2,1,11,1z"/>
<path class="st0" d="M46.3,9.7c0,0-0.2-0.2-0.4-0.5C44.4,7.8,38,1.3,38,1.3l-0.7-0.7"/>
<circle class="st1" cx="38" cy="43" r="11"/>
<rect x="36.9" y="37.5" class="st2" width="2" height="9"/>
<path id="Rectangle_528_copy" class="st2" d="M40.1,42.9l1.4,1.4L38,47.9l-1.4-1.4L40.1,42.9z"/>
<path id="Rectangle_528_copy_2" class="st2" d="M35.8,43l-1.4,1.4l3.5,3.5l1.4-1.4L35.8,43z"/>
<path class="st1" d="M4,12h21c1.7,0,3,1.3,3,3v8c0,1.7-1.3,3-3,3H4c-1.7,0-3-1.3-3-3v-8C1,13.3,2.3,12,4,12z"/>
<g class="st3">
	<path class="st2" d="M11.5,15.5h1.8l2.4,7.1h-1.8l-0.4-1.5h-2.2l-0.4,1.5H9L11.5,15.5z M13.1,19.8l-0.4-1.4
		c-0.1-0.4-0.3-1.2-0.3-1.2h0c0,0-0.2,0.8-0.3,1.2l-0.4,1.4H13.1z"/>
	<path class="st2" d="M16.5,15.5h1.7v7.1h-1.7V15.5z"/>
</g>
</svg>
