<?xml version="1.0" encoding="utf-8"?>
<!-- Generator: Adobe Illustrator 21.1.0, SVG Export Plug-In . SVG Version: 6.00 Build 0)  -->
<svg version="1.1" id="Слой_1" xmlns="http://www.w3.org/2000/svg" xmlns:xlink="http://www.w3.org/1999/xlink" x="0px" y="0px"
	 viewBox="0 0 18 7" style="enable-background:new 0 0 18 7;" xml:space="preserve">
<style type="text/css">
	.st0{fill:#1f1f1f;}
</style>
<rect y="3" class="st0" width="18" height="1"/>
<rect x="16" y="2" class="st0" width="1" height="1"/>
<rect x="15" y="1" class="st0" width="1" height="1"/>
<rect x="14" y="0" class="st0" width="1" height="1"/>
<rect x="16" y="4" class="st0" width="1" height="1"/>
<rect x="15" y="5" class="st0" width="1" height="1"/>
<rect x="14" y="6" class="st0" width="1" height="1"/>
</svg>
