<?xml version="1.0" encoding="utf-8"?>
<!-- Generator: Adobe Illustrator 21.1.0, SVG Export Plug-In . SVG Version: 6.00 Build 0)  -->
<svg version="1.1" id="Layer_1" xmlns="http://www.w3.org/2000/svg" xmlns:xlink="http://www.w3.org/1999/xlink" x="0px" y="0px"
	 viewBox="0 0 29 33" style="enable-background:new 0 0 29 33;" xml:space="preserve">
<style type="text/css">
	.st0{fill:#5E5488;}
	.st1{fill:#DFE1E3;}
	.st2{fill:#F68E56;}
</style>
<path class="st0" d="M2.5,0L2.5,0C3.9,0,5,1.1,5,2.5l0,0C5,3.9,3.9,5,2.5,5l0,0C1.1,5,0,3.9,0,2.5l0,0C0,1.1,1.1,0,2.5,0z"/>
<path id="Rectangle_1020_copy" class="st0" d="M8.5,0L8.5,0C9.9,0,11,1.1,11,2.5l0,0C11,3.9,9.9,5,8.5,5l0,0C7.1,5,6,3.9,6,2.5l0,0
	C6,1.1,7.1,0,8.5,0z"/>
<path id="Rectangle_1020_copy_2" class="st0" d="M14.5,0L14.5,0C15.9,0,17,1.1,17,2.5l0,0C17,3.9,15.9,5,14.5,5l0,0
	C13.1,5,12,3.9,12,2.5l0,0C12,1.1,13.1,0,14.5,0z"/>
<path id="Rectangle_1020_copy_3" class="st0" d="M20.5,0L20.5,0C21.9,0,23,1.1,23,2.5l0,0C23,3.9,21.9,5,20.5,5l0,0
	C19.1,5,18,3.9,18,2.5l0,0C18,1.1,19.1,0,20.5,0z"/>
<path id="Rectangle_1020_copy_4" class="st0" d="M26.5,0L26.5,0C27.9,0,29,1.1,29,2.5l0,0C29,3.9,27.9,5,26.5,5l0,0
	C25.1,5,24,3.9,24,2.5l0,0C24,1.1,25.1,0,26.5,0z"/>
<path id="Rectangle_1020_copy_5" class="st0" d="M2.5,6L2.5,6C3.9,6,5,7.1,5,8.5l0,0C5,9.9,3.9,11,2.5,11l0,0C1.1,11,0,9.9,0,8.5
	l0,0C0,7.1,1.1,6,2.5,6z"/>
<path id="Rectangle_1020_copy_6" class="st0" d="M8.5,6L8.5,6C9.9,6,11,7.1,11,8.5l0,0C11,9.9,9.9,11,8.5,11l0,0C7.1,11,6,9.9,6,8.5
	l0,0C6,7.1,7.1,6,8.5,6z"/>
<path id="Rectangle_1020_copy_7" class="st0" d="M14.5,6L14.5,6C15.9,6,17,7.1,17,8.5l0,0c0,1.4-1.1,2.5-2.5,2.5l0,0
	C13.1,11,12,9.9,12,8.5l0,0C12,7.1,13.1,6,14.5,6z"/>
<path id="Rectangle_1020_copy_8" class="st1" d="M20.5,6L20.5,6C21.9,6,23,7.1,23,8.5l0,0c0,1.4-1.1,2.5-2.5,2.5l0,0
	C19.1,11,18,9.9,18,8.5l0,0C18,7.1,19.1,6,20.5,6z"/>
<path id="Rectangle_1020_copy_9" class="st1" d="M26.5,6L26.5,6C27.9,6,29,7.1,29,8.5l0,0c0,1.4-1.1,2.5-2.5,2.5l0,0
	C25.1,11,24,9.9,24,8.5l0,0C24,7.1,25.1,6,26.5,6z"/>
<path id="Rectangle_1020_copy_10" class="st1" d="M2.5,12L2.5,12C3.9,12,5,13.1,5,14.5l0,0C5,15.9,3.9,17,2.5,17l0,0
	C1.1,17,0,15.9,0,14.5l0,0C0,13.1,1.1,12,2.5,12z"/>
<path id="Rectangle_1020_copy_11" class="st1" d="M8.5,12L8.5,12c1.4,0,2.5,1.1,2.5,2.5l0,0c0,1.4-1.1,2.5-2.5,2.5l0,0
	C7.1,17,6,15.9,6,14.5l0,0C6,13.1,7.1,12,8.5,12z"/>
<path id="Rectangle_1020_copy_12" class="st1" d="M14.5,12L14.5,12c1.4,0,2.5,1.1,2.5,2.5l0,0c0,1.4-1.1,2.5-2.5,2.5l0,0
	c-1.4,0-2.5-1.1-2.5-2.5l0,0C12,13.1,13.1,12,14.5,12z"/>
<path id="Rectangle_1020_copy_13" class="st1" d="M20.5,12L20.5,12c1.4,0,2.5,1.1,2.5,2.5l0,0c0,1.4-1.1,2.5-2.5,2.5l0,0
	c-1.4,0-2.5-1.1-2.5-2.5l0,0C18,13.1,19.1,12,20.5,12z"/>
<path id="Rectangle_1020_copy_14" class="st1" d="M26.5,12L26.5,12c1.4,0,2.5,1.1,2.5,2.5l0,0c0,1.4-1.1,2.5-2.5,2.5l0,0
	c-1.4,0-2.5-1.1-2.5-2.5l0,0C24,13.1,25.1,12,26.5,12z"/>
<path id="Rectangle_1020_copy_15" class="st1" d="M2.5,18L2.5,18C3.9,18,5,19.1,5,20.5l0,0C5,21.9,3.9,23,2.5,23l0,0
	C1.1,23,0,21.9,0,20.5l0,0C0,19.1,1.1,18,2.5,18z"/>
<path id="Rectangle_1020_copy_16" class="st1" d="M8.5,18L8.5,18c1.4,0,2.5,1.1,2.5,2.5l0,0c0,1.4-1.1,2.5-2.5,2.5l0,0
	C7.1,23,6,21.9,6,20.5l0,0C6,19.1,7.1,18,8.5,18z"/>
<path id="Rectangle_1020_copy_17" class="st1" d="M14.5,18L14.5,18c1.4,0,2.5,1.1,2.5,2.5l0,0c0,1.4-1.1,2.5-2.5,2.5l0,0
	c-1.4,0-2.5-1.1-2.5-2.5l0,0C12,19.1,13.1,18,14.5,18z"/>
<path id="Rectangle_1020_copy_18" class="st1" d="M20.5,18L20.5,18c1.4,0,2.5,1.1,2.5,2.5l0,0c0,1.4-1.1,2.5-2.5,2.5l0,0
	c-1.4,0-2.5-1.1-2.5-2.5l0,0C18,19.1,19.1,18,20.5,18z"/>
<path id="Rectangle_1020_copy_19" class="st1" d="M26.5,18L26.5,18c1.4,0,2.5,1.1,2.5,2.5l0,0c0,1.4-1.1,2.5-2.5,2.5l0,0
	c-1.4,0-2.5-1.1-2.5-2.5l0,0C24,19.1,25.1,18,26.5,18z"/>
<path id="Rectangle_1020_copy_20" class="st2" d="M2.5,28L2.5,28C3.9,28,5,29.1,5,30.5l0,0C5,31.9,3.9,33,2.5,33l0,0
	C1.1,33,0,31.9,0,30.5l0,0C0,29.1,1.1,28,2.5,28z"/>
<path id="Rectangle_1020_copy_21" class="st1" d="M8.5,28L8.5,28c1.4,0,2.5,1.1,2.5,2.5l0,0c0,1.4-1.1,2.5-2.5,2.5l0,0
	C7.1,33,6,31.9,6,30.5l0,0C6,29.1,7.1,28,8.5,28z"/>
<path id="Rectangle_1020_copy_22" class="st1" d="M14.5,28L14.5,28c1.4,0,2.5,1.1,2.5,2.5l0,0c0,1.4-1.1,2.5-2.5,2.5l0,0
	c-1.4,0-2.5-1.1-2.5-2.5l0,0C12,29.1,13.1,28,14.5,28z"/>
<path id="Rectangle_1020_copy_23" class="st1" d="M20.5,28L20.5,28c1.4,0,2.5,1.1,2.5,2.5l0,0c0,1.4-1.1,2.5-2.5,2.5l0,0
	c-1.4,0-2.5-1.1-2.5-2.5l0,0C18,29.1,19.1,28,20.5,28z"/>
</svg>
